{
  "passages": [
    {
      "text": "My name is Robert Halley.\nI am one of the two remaning people still alive from the Lonio IV mission to Mars.\nI am broadcasting on all AM frequencies.\nI will be sending frequencies every day at /time/.\nIf you are out there.\nIf anyone is out there.\nIf anybody is listening , please respond.\n<br> \n[[Hello?]]\n>",
      "links": [
        {
          "name": "Hello?",
          "link": "Hello?",
          "pid": "2"
        }
      ],
      "name": "start",
      "pid": "1",
      "position": {
        "x": "242",
        "y": "413"
      }
    },
    {
      "text": "This has to be just a misplaced signal.\nIf this is a genuine reception please respond with a terminal message.\n[[Hello, is this a joke? -> Continue]]",
      "links": [
        {
          "name": "Hello, is this a joke? ",
          "link": " Continue",
          "pid": "3"
        }
      ],
      "name": "Hello?",
      "pid": "2",
      "position": {
        "x": "384",
        "y": "413"
      }
    },
    {
      "text": "Oh thank god.\nWe have been getting false response signal readings for over two months now.\nThe Lonio I expedetion to Mars started three months ago with 16 participants. \nBy the time we landed there were 12 of us left, there are two of left now.\nThis is the first Earth contact since landing, but the Earth probably knows about us already.\n\n[[This has to be a joke]] [[What is Lonio IV?->What is Lonio IV?]]",
      "links": [
        {
          "name": "This has to be a joke",
          "link": "This has to be a joke",
          "pid": "4"
        },
        {
          "name": "What is Lonio IV?",
          "link": "What is Lonio IV?",
          "pid": "5"
        }
      ],
      "name": " Continue",
      "pid": "3",
      "position": {
        "x": "509",
        "y": "380"
      }
    },
    {
      "text": "Please tell me you're informed about what has happened in the past few months.\n[[How are you even sending me this?->explanation]] [[Have no idea, who are you again?->who are you]] ",
      "links": [
        {
          "name": "How are you even sending me this?",
          "link": "explanation",
          "pid": "7"
        },
        {
          "name": "Have no idea, who are you again?",
          "link": "who are you",
          "pid": "6"
        }
      ],
      "name": "This has to be a joke",
      "pid": "4",
      "position": {
        "x": "621",
        "y": "506"
      }
    },
    {
      "text": "Have you been living under a rock?\nLonio IV is probably all over the news by now.\n\n[[You're kidding right?->explanation]] [[It's starting to ring a bell->explanation]]",
      "links": [
        {
          "name": "You're kidding right?",
          "link": "explanation",
          "pid": "7"
        },
        {
          "name": "It's starting to ring a bell",
          "link": "explanation",
          "pid": "7"
        }
      ],
      "name": "What is Lonio IV?",
      "pid": "5",
      "position": {
        "x": "675",
        "y": "266"
      }
    },
    {
      "text": "You're telling me you haven't heard of the first volunteers to be sent to Mars?\n[[Enlighten me->explanation]] [[This really is a joke->explanation]]",
      "links": [
        {
          "name": "Enlighten me",
          "link": "explanation",
          "pid": "7"
        },
        {
          "name": "This really is a joke",
          "link": "explanation",
          "pid": "7"
        }
      ],
      "name": "who are you",
      "pid": "6",
      "position": {
        "x": "843",
        "y": "672"
      }
    },
    {
      "text": "My name is Robert Halley, currently next to me is Rigel White.\nWe are currently located near a man-made base on Mars.\nSince, you don't believe me, and since you're the only person from Earth who responded to our signal, I'll just hope you don't break the signal up.\n[[Continue->explanationII]]  [[I still think this is a joke->explanationII]]",
      "links": [
        {
          "name": "Continue",
          "link": "explanationII",
          "pid": "9"
        },
        {
          "name": "I still think this is a joke",
          "link": "explanationII",
          "pid": "9"
        }
      ],
      "name": "explanation",
      "pid": "7",
      "position": {
        "x": "813",
        "y": "401"
      }
    },
    {
      "text": "Robert Halley - White,32\nRigel White - Black,30\n",
      "name": "Characters",
      "pid": "8",
      "position": {
        "x": "123",
        "y": "253"
      }
    },
    {
      "text": "The Lonio IV expedition had many flaws, hence the IV.\nIt is still a growing private space exploration corporation.\nThey tried to send people to Mars without having the proper funding,\nsome died from oxygen lost on board, many from impact.\n\n[[How come you survived? -> explanationIII]]",
      "links": [
        {
          "name": "How come you survived? ",
          "link": " explanationIII",
          "pid": "10"
        }
      ],
      "name": "explanationII",
      "pid": "9",
      "position": {
        "x": "936",
        "y": "403"
      }
    },
    {
      "text": "Luck, I guess, if you can call it that.\nBut sometimes it's like we weren't even destined to live.\nThere's not enough food here to last us nowhere near the time it would take for another expedition to arrive.\n\n[[So, this is really happening?]] [[Why did you go?]]",
      "links": [
        {
          "name": "So, this is really happening?",
          "link": "So, this is really happening?",
          "pid": "11"
        },
        {
          "name": "Why did you go?",
          "link": "Why did you go?",
          "pid": "12"
        }
      ],
      "name": " explanationIII",
      "pid": "10",
      "position": {
        "x": "1056",
        "y": "404"
      }
    },
    {
      "text": "Of course it is, and by the amount of food we have we don't believe it's going to be happening for a long time.\n\n[[What does this have to do with me?]] [[Should I call someone?]]",
      "links": [
        {
          "name": "What does this have to do with me?",
          "link": "What does this have to do with me?",
          "pid": "13"
        },
        {
          "name": "Should I call someone?",
          "link": "Should I call someone?",
          "pid": "14"
        }
      ],
      "name": "So, this is really happening?",
      "pid": "11",
      "position": {
        "x": "1211",
        "y": "555"
      }
    },
    {
      "text": "We signed up years ago.\nWe're not astronauts.\nI was never out of the United States.\nWe were just a test gone wrong I guess.\n\n[[What happens now?]]",
      "links": [
        {
          "name": "What happens now?",
          "link": "What happens now?",
          "pid": "15"
        }
      ],
      "name": "Why did you go?",
      "pid": "12",
      "position": {
        "x": "1204",
        "y": "279"
      }
    },
    {
      "text": "It doesn't really.\nIt has to do with Lonio itself, but since Lonio failed, so have we.\n\n[[What happens now?]]",
      "links": [
        {
          "name": "What happens now?",
          "link": "What happens now?",
          "pid": "15"
        }
      ],
      "name": "What does this have to do with me?",
      "pid": "13",
      "position": {
        "x": "1337",
        "y": "724"
      }
    },
    {
      "text": "There is no one to call.\nObviously no one even knows about us.\n\n[[What happens now?]]",
      "links": [
        {
          "name": "What happens now?",
          "link": "What happens now?",
          "pid": "15"
        }
      ],
      "name": "Should I call someone?",
      "pid": "14",
      "position": {
        "x": "1341",
        "y": "562"
      }
    },
    {
      "text": "Now we wait.\nSomething will run out.\nEither the power supply for this terminal.\nOr perhaps the food supply leftover from the ships which is now a wreckage scattered on impact.\n\n[[What do you mean wreckage?]]",
      "links": [
        {
          "name": "What do you mean wreckage?",
          "link": "What do you mean wreckage?",
          "pid": "16"
        }
      ],
      "name": "What happens now?",
      "pid": "15",
      "position": {
        "x": "1544",
        "y": "442"
      }
    },
    {
      "text": "We are currently inside a small capsule part of the rocket.\nThere is nothing here but this device, food and 3 suits.\n[[Did you walk on the surface?]] [[How much food?]]",
      "links": [
        {
          "name": "Did you walk on the surface?",
          "link": "Did you walk on the surface?",
          "pid": "17"
        },
        {
          "name": "How much food?",
          "link": "How much food?",
          "pid": "18"
        }
      ],
      "name": "What do you mean wreckage?",
      "pid": "16",
      "position": {
        "x": "1695",
        "y": "307"
      }
    },
    {
      "text": "Yea, I guess, honestly I don't care for it too much.\nI would rather walk on quicksand than this death trap of a planet.\n[[What about the suits?]]",
      "links": [
        {
          "name": "What about the suits?",
          "link": "What about the suits?",
          "pid": "20"
        }
      ],
      "name": "Did you walk on the surface?",
      "pid": "17",
      "position": {
        "x": "1827",
        "y": "162"
      }
    },
    {
      "text": "Two weeks, three maybe I don't know.\nDefinitely more than the oxygen supply.\n[[So, oxygen?]] [[What about the suits?]]",
      "links": [
        {
          "name": "So, oxygen?",
          "link": "So, oxygen?",
          "pid": "19"
        },
        {
          "name": "What about the suits?",
          "link": "What about the suits?",
          "pid": "20"
        }
      ],
      "name": "How much food?",
      "pid": "18",
      "position": {
        "x": "1817",
        "y": "382"
      }
    },
    {
      "text": "Oxygen is low my friend.\n[[And you're okay with that?]] [[What about Rigel?]]",
      "links": [
        {
          "name": "And you're okay with that?",
          "link": "And you're okay with that?",
          "pid": "21"
        },
        {
          "name": "What about Rigel?",
          "link": "What about Rigel?",
          "pid": "22"
        }
      ],
      "name": "So, oxygen?",
      "pid": "19",
      "position": {
        "x": "2062",
        "y": "409"
      }
    },
    {
      "text": "Rigel's suit is here, my suit got buried on impact.\nThe other two need some polishing.\n[[How is Rigel doing?->What about Rigel?]]",
      "links": [
        {
          "name": "How is Rigel doing?",
          "link": "What about Rigel?",
          "pid": "22"
        }
      ],
      "name": "What about the suits?",
      "pid": "20",
      "position": {
        "x": "2050",
        "y": "172"
      }
    },
    {
      "text": "Do I seem okay with that?\nIs it the fact I got over the whole dying part of this?\n[[You see pretty calm about it]]  [[I guess not]]",
      "links": [
        {
          "name": "You see pretty calm about it",
          "link": "You see pretty calm about it",
          "pid": "25"
        },
        {
          "name": "I guess not",
          "link": "I guess not",
          "pid": "26"
        }
      ],
      "name": "And you're okay with that?",
      "pid": "21",
      "position": {
        "x": "2244",
        "y": "526"
      }
    },
    {
      "text": "Rigel is doing fine.\nHe doesn't talk much.\nHe hasn't put on his suit since touchdown.\nNow that I think about it maybe he isn't doing so good.\nHe misses his family.\n[[What about your family?]]  [[I want to speak to Rigel]]",
      "links": [
        {
          "name": "What about your family?",
          "link": "What about your family?",
          "pid": "23"
        },
        {
          "name": "I want to speak to Rigel",
          "link": "I want to speak to Rigel",
          "pid": "24"
        }
      ],
      "name": "What about Rigel?",
      "pid": "22",
      "position": {
        "x": "2258",
        "y": "226"
      }
    },
    {
      "text": "Well sometimes I look up and hope they're doing the same.\nI miss them.\nI miss the Earth entirely.\nMaybe there is a way you can help me.\n[[Which?]]",
      "links": [
        {
          "name": "Which?",
          "link": "Which?",
          "pid": "39"
        }
      ],
      "name": "What about your family?",
      "pid": "23",
      "position": {
        "x": "2437",
        "y": "55"
      }
    },
    {
      "text": "Rigel wasn't very excited when I told him I found a receiving signal.\nHe's smart.\nHe knows it's not much use to us.\n[[Let me speak to him->help]]  [[Leave him alone then->help]]",
      "links": [
        {
          "name": "Let me speak to him",
          "link": "help",
          "pid": "29"
        },
        {
          "name": "Leave him alone then",
          "link": "help",
          "pid": "29"
        }
      ],
      "name": "I want to speak to Rigel",
      "pid": "24",
      "position": {
        "x": "2390",
        "y": "331"
      }
    },
    {
      "text": "Well, you can't really express yourself with a terminal.\n[[This is a shitty situation you're in]] ",
      "links": [
        {
          "name": "This is a shitty situation you're in",
          "link": "This is a shitty situation you're in",
          "pid": "27"
        }
      ],
      "name": "You see pretty calm about it",
      "pid": "25",
      "position": {
        "x": "2540",
        "y": "735"
      }
    },
    {
      "text": "Thought so.\n[[This is a shitty situation you're in]]\n",
      "links": [
        {
          "name": "This is a shitty situation you're in",
          "link": "This is a shitty situation you're in",
          "pid": "27"
        }
      ],
      "name": "I guess not",
      "pid": "26",
      "position": {
        "x": "2481",
        "y": "562"
      }
    },
    {
      "text": "Maybe you can help me with that.\n[[Which?]]",
      "links": [
        {
          "name": "Which?",
          "link": "Which?",
          "pid": "39"
        }
      ],
      "name": "This is a shitty situation you're in",
      "pid": "27",
      "position": {
        "x": "2747",
        "y": "505"
      }
    },
    {
      "text": "[[Bad image->TakePicture-Bad image]] [[Good image]]",
      "links": [
        {
          "name": "Bad image",
          "link": "TakePicture-Bad image",
          "pid": "30"
        },
        {
          "name": "Good image",
          "link": "Good image",
          "pid": "31"
        }
      ],
      "name": "TakePicture-Landscape-sky,plant,road,asphalt,vehicle,race",
      "pid": "28",
      "position": {
        "x": "2832",
        "y": "227"
      }
    },
    {
      "text": "Maybe there is a better way for you to help him.\n[[Which?]]",
      "links": [
        {
          "name": "Which?",
          "link": "Which?",
          "pid": "39"
        }
      ],
      "name": "help",
      "pid": "29",
      "position": {
        "x": "2704",
        "y": "166"
      }
    },
    {
      "text": "I don't think that's really going to help.\n\n[[Bad image]]  [[Good image]]",
      "links": [
        {
          "name": "Bad image",
          "link": "Bad image",
          "pid": "32"
        },
        {
          "name": "Good image",
          "link": "Good image",
          "pid": "31"
        }
      ],
      "name": "TakePicture-Bad image",
      "pid": "30",
      "position": {
        "x": "3029",
        "y": "426"
      }
    },
    {
      "text": "Holy fuck!\nRigel is going to love this.\n[[I'm glad->pause(1)-End of first chapter]] [[What is Rigel doing?]]",
      "links": [
        {
          "name": "I'm glad",
          "link": "pause(1)-End of first chapter",
          "pid": "34"
        },
        {
          "name": "What is Rigel doing?",
          "link": "What is Rigel doing?",
          "pid": "33"
        }
      ],
      "name": "Good image",
      "pid": "31",
      "position": {
        "x": "3157",
        "y": "156"
      }
    },
    {
      "text": "Well I guess that won't work out just yet.\n[[I'll try again later->pause(1)-End of first chapter]]",
      "links": [
        {
          "name": "I'll try again later",
          "link": "pause(1)-End of first chapter",
          "pid": "34"
        }
      ],
      "name": "Bad image",
      "pid": "32",
      "position": {
        "x": "3324",
        "y": "467"
      }
    },
    {
      "text": "I think he fell asleep.\nHe's been looking at pictures of his family quite a lot.\nI think he'll speak to you when he wakes.\n\n[[pause(1)-End of first chapter]] [[I don't really want to speak to him]]",
      "links": [
        {
          "name": "pause(1)-End of first chapter",
          "link": "pause(1)-End of first chapter",
          "pid": "34"
        },
        {
          "name": "I don't really want to speak to him",
          "link": "I don't really want to speak to him",
          "pid": "35"
        }
      ],
      "name": "What is Rigel doing?",
      "pid": "33",
      "position": {
        "x": "3304",
        "y": "35"
      }
    },
    {
      "text": "I'm going to try to eat some of this food we have remaining.\nYou'll hear from Rigel and I later.\n\n[[After first pause. - Rigel]]\n\n\n ",
      "links": [
        {
          "name": "After first pause. - Rigel",
          "link": "After first pause. - Rigel",
          "pid": "38"
        }
      ],
      "name": "pause(1)-End of first chapter",
      "pid": "34",
      "position": {
        "x": "3794",
        "y": "316"
      }
    },
    {
      "text": "Why?\n[[He seems suspicious]] [[I don't know just weird I guess->pause(1)-End of first chapter]]",
      "links": [
        {
          "name": "He seems suspicious",
          "link": "He seems suspicious",
          "pid": "36"
        },
        {
          "name": "I don't know just weird I guess",
          "link": "pause(1)-End of first chapter",
          "pid": "34"
        }
      ],
      "name": "I don't really want to speak to him",
      "pid": "35",
      "position": {
        "x": "3469",
        "y": "6"
      }
    },
    {
      "text": "What are you talking about.\n[[He's too calm]] [[I don't know->pause(1)-End of first chapter]]",
      "links": [
        {
          "name": "He's too calm",
          "link": "He's too calm",
          "pid": "37"
        },
        {
          "name": "I don't know",
          "link": "pause(1)-End of first chapter",
          "pid": "34"
        }
      ],
      "name": "He seems suspicious",
      "pid": "36",
      "position": {
        "x": "3651",
        "y": "48"
      }
    },
    {
      "text": "I think it's normal for him to be quiet.\nEverything else around here is quiet.\nSo are we.\n[[I guess that makes sense->pause(1)-End of first chapter]]",
      "links": [
        {
          "name": "I guess that makes sense",
          "link": "pause(1)-End of first chapter",
          "pid": "34"
        }
      ],
      "name": "He's too calm",
      "pid": "37",
      "position": {
        "x": "3815",
        "y": "115"
      }
    },
    {
      "text": "So you're the fucker that cares about us?\n\n[[What do you mean?]] [[Yes. - Rigel]]",
      "links": [
        {
          "name": "What do you mean?",
          "link": "What do you mean?",
          "pid": "40"
        },
        {
          "name": "Yes. - Rigel",
          "link": "Yes. - Rigel",
          "pid": "41"
        }
      ],
      "name": "After first pause. - Rigel",
      "pid": "38",
      "position": {
        "x": "4100",
        "y": "404"
      }
    },
    {
      "text": "Send me a picture of the landscape.\nThe only thing we see here is red rocks and darkness.\n\n[[Take a Picture->TakePicture-Landscape-sky,plant,road,asphalt,vehicle,race]]",
      "links": [
        {
          "name": "Take a Picture",
          "link": "TakePicture-Landscape-sky,plant,road,asphalt,vehicle,race",
          "pid": "28"
        }
      ],
      "name": "Which?",
      "pid": "39",
      "position": {
        "x": "2676",
        "y": "334"
      }
    },
    {
      "text": "Double-click this passage to edit it.",
      "name": "What do you mean?",
      "pid": "40",
      "position": {
        "x": "4373",
        "y": "549"
      }
    },
    {
      "text": "Great. \nThat picture you took sucked.\n\n[[Thanks I guess.-Rigel]] [[Great first impression man.-Rigel]]",
      "links": [
        {
          "name": "Thanks I guess.-Rigel",
          "link": "Thanks I guess.-Rigel",
          "pid": "42"
        },
        {
          "name": "Great first impression man.-Rigel",
          "link": "Great first impression man.-Rigel",
          "pid": "43"
        }
      ],
      "name": "Yes. - Rigel",
      "pid": "41",
      "position": {
        "x": "4344",
        "y": "246"
      }
    },
    {
      "text": "I hope we'll be able to send pictures to you soon.\nWe've been trying to get it to send something but for now it just says it's gonna take 12 years.\n\n[[You can send pictures?]]",
      "links": [
        {
          "name": "You can send pictures?",
          "link": "You can send pictures?",
          "pid": "48"
        }
      ],
      "name": "Thanks I guess.-Rigel",
      "pid": "42",
      "position": {
        "x": "7194",
        "y": "43"
      }
    },
    {
      "text": "I'm just messing with you.\nRobert told me he thinks you like jokes.\n\n[[I do.-Rigel]] [[Screw you and your jokes.-Rigel->I do.-Rigel]]",
      "links": [
        {
          "name": "I do.-Rigel",
          "link": "I do.-Rigel",
          "pid": "44"
        },
        {
          "name": "Screw you and your jokes.-Rigel",
          "link": "I do.-Rigel",
          "pid": "44"
        }
      ],
      "name": "Great first impression man.-Rigel",
      "pid": "43",
      "position": {
        "x": "4631",
        "y": "287"
      }
    },
    {
      "text": "I have another joke for you.\nHow many astronauts does it take to eat the food meant for 6 people?\n\n[[How many?-Rigel]] [[This is gonna suck-Rigel->How many?-Rigel]]",
      "links": [
        {
          "name": "How many?-Rigel",
          "link": "How many?-Rigel",
          "pid": "45"
        },
        {
          "name": "This is gonna suck-Rigel",
          "link": "How many?-Rigel",
          "pid": "45"
        }
      ],
      "name": "I do.-Rigel",
      "pid": "44",
      "position": {
        "x": "4812",
        "y": "229"
      }
    },
    {
      "text": "Three more weeks.\n\n[[Yup, this just got dark-Rigel]] [[HAHAHHAHAHA-Rigel]]",
      "links": [
        {
          "name": "Yup, this just got dark-Rigel",
          "link": "Yup, this just got dark-Rigel",
          "pid": "46"
        },
        {
          "name": "HAHAHHAHAHA-Rigel",
          "link": "HAHAHHAHAHA-Rigel",
          "pid": "47"
        }
      ],
      "name": "How many?-Rigel",
      "pid": "45",
      "position": {
        "x": "5036",
        "y": "230"
      }
    },
    {
      "text": "Well I actually have a plan.\n\n[[Shoot.->Better than starvation?-Rigel]]",
      "links": [
        {
          "name": "Shoot.",
          "link": "Better than starvation?-Rigel",
          "pid": "54"
        }
      ],
      "name": "Yup, this just got dark-Rigel",
      "pid": "46",
      "position": {
        "x": "5249",
        "y": "555"
      }
    },
    {
      "text": "Thanks for laughing so hard, the martians here usually don't laugh so hard.\n\n[[Martians?-Rigel]] [[Yea they are known for that.-Rigel]]\n",
      "links": [
        {
          "name": "Martians?-Rigel",
          "link": "Martians?-Rigel",
          "pid": "49"
        },
        {
          "name": "Yea they are known for that.-Rigel",
          "link": "Yea they are known for that.-Rigel",
          "pid": "50"
        }
      ],
      "name": "HAHAHHAHAHA-Rigel",
      "pid": "47",
      "position": {
        "x": "5314",
        "y": "174"
      }
    },
    {
      "text": "Of course we can.\nWe got to Mars.\nSending pictures is nothing.\n\n[[I can't wait.->When will you fix this?-Rigel]] [[When will you fix this?-Rigel]]",
      "links": [
        {
          "name": "I can't wait.",
          "link": "When will you fix this?-Rigel",
          "pid": "60"
        },
        {
          "name": "When will you fix this?-Rigel",
          "link": "When will you fix this?-Rigel",
          "pid": "60"
        }
      ],
      "name": "You can send pictures?",
      "pid": "48",
      "position": {
        "x": "7198",
        "y": "328"
      }
    },
    {
      "text": "Still fucking with you.\n\n[[Are you sure about that?-Rigel]]",
      "links": [
        {
          "name": "Are you sure about that?-Rigel",
          "link": "Are you sure about that?-Rigel",
          "pid": "51"
        }
      ],
      "name": "Martians?-Rigel",
      "pid": "49",
      "position": {
        "x": "5571",
        "y": "343"
      }
    },
    {
      "text": "Great, another joke ruined.\n\n[[Start sending memes.->Thanks I guess.-Rigel]]\n",
      "links": [
        {
          "name": "Start sending memes.",
          "link": "Thanks I guess.-Rigel",
          "pid": "42"
        }
      ],
      "name": "Yea they are known for that.-Rigel",
      "pid": "50",
      "position": {
        "x": "5564",
        "y": "204"
      }
    },
    {
      "text": "Pretty sure.\n\n[[What happens if you see someone there?-Rigel]] ",
      "links": [
        {
          "name": "What happens if you see someone there?-Rigel",
          "link": "What happens if you see someone there?-Rigel",
          "pid": "52"
        }
      ],
      "name": "Are you sure about that?-Rigel",
      "pid": "51",
      "position": {
        "x": "5849",
        "y": "287"
      }
    },
    {
      "text": "Then you'll be the first to know I promise.\n\n[[I'm so lucky.-Rigel]] [[Pic or it didn't happen.->Thanks I guess.-Rigel]]",
      "links": [
        {
          "name": "I'm so lucky.-Rigel",
          "link": "I'm so lucky.-Rigel",
          "pid": "53"
        },
        {
          "name": "Pic or it didn't happen.",
          "link": "Thanks I guess.-Rigel",
          "pid": "42"
        }
      ],
      "name": "What happens if you see someone there?-Rigel",
      "pid": "52",
      "position": {
        "x": "6029",
        "y": "361"
      }
    },
    {
      "text": "The thing is, it may try to kill us so don't get your hopes us.\n\n[[Better than starvation?-Rigel]] [[Have you never seen Bear Grylls?-Rigel]]",
      "links": [
        {
          "name": "Better than starvation?-Rigel",
          "link": "Better than starvation?-Rigel",
          "pid": "54"
        },
        {
          "name": "Have you never seen Bear Grylls?-Rigel",
          "link": "Have you never seen Bear Grylls?-Rigel",
          "pid": "55"
        }
      ],
      "name": "I'm so lucky.-Rigel",
      "pid": "53",
      "position": {
        "x": "6189",
        "y": "367"
      }
    },
    {
      "text": "Starvation isn't an issue, probably going to eat Robert soon.\n\n[[Excuse me?]] [[No more jokes man.-Rigel]]",
      "links": [
        {
          "name": "Excuse me?",
          "link": "Excuse me?",
          "pid": "56"
        },
        {
          "name": "No more jokes man.-Rigel",
          "link": "No more jokes man.-Rigel",
          "pid": "57"
        }
      ],
      "name": "Better than starvation?-Rigel",
      "pid": "54",
      "position": {
        "x": "6314",
        "y": "470"
      }
    },
    {
      "text": "Oh we have a comedian here.\nWhy don't you come here and tell it to me in person?\n\n[[Video chat me.->Thanks I guess.-Rigel]]",
      "links": [
        {
          "name": "Video chat me.",
          "link": "Thanks I guess.-Rigel",
          "pid": "42"
        }
      ],
      "name": "Have you never seen Bear Grylls?-Rigel",
      "pid": "55",
      "position": {
        "x": "6503",
        "y": "265"
      }
    },
    {
      "text": "You really fell for another joke?\n\n[[Jokes are usually funny so I didn't think it was one.]]",
      "links": [
        {
          "name": "Jokes are usually funny so I didn't think it was one.",
          "link": "Jokes are usually funny so I didn't think it was one.",
          "pid": "58"
        }
      ],
      "name": "Excuse me?",
      "pid": "56",
      "position": {
        "x": "6487",
        "y": "559"
      }
    },
    {
      "text": "Aren't you quite a buzzkill?\n\n[[Give me Robert.->Where is Robert?-Rigel]]",
      "links": [
        {
          "name": "Give me Robert.",
          "link": "Where is Robert?-Rigel",
          "pid": "59"
        }
      ],
      "name": "No more jokes man.-Rigel",
      "pid": "57",
      "position": {
        "x": "6520",
        "y": "407"
      }
    },
    {
      "text": "Nice one, Robert probably loved talking to you.\n[[Where is Robert?-Rigel]]",
      "links": [
        {
          "name": "Where is Robert?-Rigel",
          "link": "Where is Robert?-Rigel",
          "pid": "59"
        }
      ],
      "name": "Jokes are usually funny so I didn't think it was one.",
      "pid": "58",
      "position": {
        "x": "6699",
        "y": "559"
      }
    },
    {
      "text": "He's actually trying to fix the whole sending images to you thing.\n\n[[Pictures?->Thanks I guess.-Rigel]]",
      "links": [
        {
          "name": "Pictures?",
          "link": "Thanks I guess.-Rigel",
          "pid": "42"
        }
      ],
      "name": "Where is Robert?-Rigel",
      "pid": "59",
      "position": {
        "x": "6833",
        "y": "409"
      }
    },
    {
      "text": "Well there's a problem.\nRobert said he can't figure out what compression algorithm we're supposed to use.\nEvery time we try the wrong one we have to wait an hour before we can try again?\nHelp us.\nWhich one should we use?\n\n[[Middle-out->Right-Rigel]] [[DC->Wrong-Rigel]] [[Port-Pn->Wrong-Rigel]] [[89-Ti->Wrong-Rigel]]",
      "links": [
        {
          "name": "Middle-out",
          "link": "Right-Rigel",
          "pid": "61"
        },
        {
          "name": "DC",
          "link": "Wrong-Rigel",
          "pid": "62"
        },
        {
          "name": "Port-Pn",
          "link": "Wrong-Rigel",
          "pid": "62"
        },
        {
          "name": "89-Ti",
          "link": "Wrong-Rigel",
          "pid": "62"
        }
      ],
      "name": "When will you fix this?-Rigel",
      "pid": "60",
      "position": {
        "x": "7376",
        "y": "238"
      }
    },
    {
      "text": "Shit man.\nIt worked.\n\n[[Give me my picture.->TerminalImage - Window]] [[No dick pics please.->TerminalImage - Window]]",
      "links": [
        {
          "name": "Give me my picture.",
          "link": "TerminalImage - Window",
          "pid": "64"
        },
        {
          "name": "No dick pics please.",
          "link": "TerminalImage - Window",
          "pid": "64"
        }
      ],
      "name": "Right-Rigel",
      "pid": "61",
      "position": {
        "x": "7451",
        "y": "399"
      }
    },
    {
      "text": "So, we're gonna go try to figure out if we can try again in less than an hour.\nSomeone made a wrong choice. \n\n[[pause(1)-End of second chapter]]",
      "links": [
        {
          "name": "pause(1)-End of second chapter",
          "link": "pause(1)-End of second chapter",
          "pid": "63"
        }
      ],
      "name": "Wrong-Rigel",
      "pid": "62",
      "position": {
        "x": "7873",
        "y": "163"
      }
    },
    {
      "text": "Double-click this passage to edit it.",
      "name": "pause(1)-End of second chapter",
      "pid": "63",
      "position": {
        "x": "8174",
        "y": "418"
      }
    },
    {
      "text": "[[That is Mars.->This is amazing.-Rigel]] [[This is amazing.-Rigel]][[This picture sucks.-Rigel]]",
      "links": [
        {
          "name": "That is Mars.",
          "link": "This is amazing.-Rigel",
          "pid": "65"
        },
        {
          "name": "This is amazing.-Rigel",
          "link": "This is amazing.-Rigel",
          "pid": "65"
        },
        {
          "name": "This picture sucks.-Rigel",
          "link": "This picture sucks.-Rigel",
          "pid": "66"
        }
      ],
      "name": "TerminalImage - Window",
      "pid": "64",
      "position": {
        "x": "7591",
        "y": "530.5"
      }
    },
    {
      "text": "It is quite extraordinary.\nThere is something magical about it.\nApart from the bodies of our friends laying somewhere over there.\n\n[[Maybe we should take a break from this conversation.]]",
      "links": [
        {
          "name": "Maybe we should take a break from this conversation.",
          "link": "Maybe we should take a break from this conversation.",
          "pid": "67"
        }
      ],
      "name": "This is amazing.-Rigel",
      "pid": "65",
      "position": {
        "x": "7776",
        "y": "591.5"
      }
    },
    {
      "text": "You should volunteer to come here.\nGonna beat your ass.\n\n[[Oh, please.->Thanks-Rigel]]  [[I'm sorry.-Rigel->Thanks-Rigel]]",
      "links": [
        {
          "name": "Oh, please.",
          "link": "Thanks-Rigel",
          "pid": "68"
        },
        {
          "name": "I'm sorry.-Rigel",
          "link": "Thanks-Rigel",
          "pid": "68"
        }
      ],
      "name": "This picture sucks.-Rigel",
      "pid": "66",
      "position": {
        "x": "7767",
        "y": "412.5"
      }
    },
    {
      "text": "[[pause(1)-End of second chapter]]",
      "links": [
        {
          "name": "pause(1)-End of second chapter",
          "link": "pause(1)-End of second chapter",
          "pid": "63"
        }
      ],
      "name": "Maybe we should take a break from this conversation.",
      "pid": "67",
      "position": {
        "x": "7977",
        "y": "528.5"
      }
    },
    {
      "text": "Hey listen, thanks for making the right choice.\nThings seem to be going up.\nWe'll talk later. \nI'm going to continue writing my book.\n[[pause(1)-End of second chapter]]",
      "links": [
        {
          "name": "pause(1)-End of second chapter",
          "link": "pause(1)-End of second chapter",
          "pid": "63"
        }
      ],
      "name": "Thanks-Rigel",
      "pid": "68",
      "position": {
        "x": "7957",
        "y": "331.5"
      }
    }
  ],
  "name": "lonio",
  "startnode": "1",
  "creator": "Twine",
  "creator-version": "2.2.1",
  "ifid": "A9E9B475-81E6-4FFB-A3A8-4CA5920E4F8A"
}